<?xml version="1.0" encoding="utf-8"?>
<!-- Generator: Adobe Illustrator 26.0.1, SVG Export Plug-In . SVG Version: 6.00 Build 0)  -->
<svg version="1.1" id="Layer_1" xmlns:serif="http://www.serif.com/"
	 xmlns="http://www.w3.org/2000/svg" xmlns:xlink="http://www.w3.org/1999/xlink" x="0px" y="0px" viewBox="0 0 300 302"
	 style="enable-background:new 0 0 300 302;" xml:space="preserve">
<style type="text/css">
	.st0{fill:#FFFFFF;}
</style>
<path class="st0" d="M220.6,168.7l8.2-53.8h-51.7V79.9c0-14.8,7.2-29.1,30.3-29.1H231V4.9c0,0-21.3-3.7-41.7-3.7
	c-42.6,0-70.4,25.8-70.4,72.5v41H71.7v53.8H119v130.2c9.5,1.4,19.2,2.2,29.1,2.2c9.9,0,19.6-0.8,29.1-2.2V168.7H220.6z"/>
</svg>
