<?xml version="1.0" encoding="utf-8"?>
<!-- Generator: Adobe Illustrator 26.0.1, SVG Export Plug-In . SVG Version: 6.00 Build 0)  -->
<svg version="1.1" id="Layer_1" xmlns="http://www.w3.org/2000/svg" xmlns:xlink="http://www.w3.org/1999/xlink" x="0px" y="0px"
	 viewBox="0 0 50 41.1" style="enable-background:new 0 0 50 41.1;" xml:space="preserve">
<style type="text/css">
	.st0{fill:#FFFFFF;}
</style>
<path class="st0" d="M50.1,5.2c-1.9,0.8-3.8,1.4-6,1.6c2.2-1.3,3.8-3.3,4.6-5.7c-2,1.3-4.2,2-6.6,2.5c-1.9-2-4.6-3.3-7.5-3.3
	c-5.7,0-10.4,4.6-10.4,10.4c0,0.8,0.2,1.6,0.3,2.4C16,12.6,8.5,8.5,3.3,2.3C2.4,3.8,1.9,5.6,1.9,7.4c0,3.6,1.9,6.8,4.6,8.6
	c-1.7,0-3.3-0.5-4.7-1.3v0.2c0,5,3.6,9.1,8.3,10.1c-0.9,0.2-1.7,0.3-2.7,0.3c-0.6,0-1.3,0-1.9-0.2c1.3,4.1,5.2,7.1,9.6,7.2
	c-3.5,2.8-8,4.4-12.7,4.4c-0.8,0-1.7,0-2.5-0.2c4.6,2.8,10.1,4.6,15.9,4.6c19,0,29.4-15.7,29.4-29.4c0-0.5,0-0.9,0-1.4
	C47,9.2,48.7,7.3,50.1,5.2z"/>
</svg>
